<?xml version="1.0" encoding="UTF-8"?>
<symbol version="7" name="Cache_Controller">
    <symboltype>BLOCK</symboltype>
    <timestamp>2019-11-3T1:4:58</timestamp>
    <pin polarity="Input" x="0" y="-608" name="clk" />
    <pin polarity="Input" x="0" y="-464" name="wr_rd" />
    <pin polarity="Input" x="0" y="-320" name="cs" />
    <pin polarity="Input" x="0" y="-176" name="address(15:0)" />
    <pin polarity="Input" x="0" y="-32" name="data_in(7:0)" />
    <pin polarity="Output" x="592" y="-608" name="ready" />
    <pin polarity="Output" x="592" y="-544" name="debugState" />
    <pin polarity="Output" x="592" y="-480" name="debugMem_strb" />
    <pin polarity="Output" x="592" y="-416" name="data_out(7:0)" />
    <pin polarity="Output" x="592" y="-352" name="debugTag(7:0)" />
    <pin polarity="Output" x="592" y="-288" name="debugCacheBlockNumber(2:0)" />
    <pin polarity="Output" x="592" y="-224" name="debugOffset(4:0)" />
    <pin polarity="Output" x="592" y="-160" name="debugSdram_data_in(7:0)" />
    <pin polarity="Output" x="592" y="-96" name="debugSdram_data_out(7:0)" />
    <pin polarity="Output" x="592" y="-32" name="debugCache_data_in(7:0)" />
    <graph>
        <rect width="464" x="64" y="-640" height="640" />
        <attrtext style="alignment:BCENTER;fontsize:56;fontname:Arial" attrname="SymbolName" x="296" y="-648" type="symbol" />
        <attrtext style="fontsize:24;fontname:Arial" attrname="PinName" x="72" y="-608" type="pin clk" />
        <line x2="0" y1="-608" y2="-608" x1="64" />
        <attrtext style="fontsize:24;fontname:Arial" attrname="PinName" x="72" y="-464" type="pin wr_rd" />
        <line x2="0" y1="-464" y2="-464" x1="64" />
        <attrtext style="fontsize:24;fontname:Arial" attrname="PinName" x="72" y="-320" type="pin cs" />
        <line x2="0" y1="-320" y2="-320" x1="64" />
        <attrtext style="fontsize:24;fontname:Arial" attrname="PinName" x="72" y="-176" type="pin address(15:0)" />
        <rect width="64" x="0" y="-188" height="24" />
        <line x2="0" y1="-176" y2="-176" x1="64" />
        <attrtext style="fontsize:24;fontname:Arial" attrname="PinName" x="72" y="-32" type="pin data_in(7:0)" />
        <rect width="64" x="0" y="-44" height="24" />
        <line x2="0" y1="-32" y2="-32" x1="64" />
        <attrtext style="alignment:RIGHT;fontsize:24;fontname:Arial" attrname="PinName" x="520" y="-608" type="pin ready" />
        <line x2="592" y1="-608" y2="-608" x1="528" />
        <attrtext style="alignment:RIGHT;fontsize:24;fontname:Arial" attrname="PinName" x="520" y="-544" type="pin debugState" />
        <line x2="592" y1="-544" y2="-544" x1="528" />
        <attrtext style="alignment:RIGHT;fontsize:24;fontname:Arial" attrname="PinName" x="520" y="-480" type="pin debugMem_strb" />
        <line x2="592" y1="-480" y2="-480" x1="528" />
        <attrtext style="alignment:RIGHT;fontsize:24;fontname:Arial" attrname="PinName" x="520" y="-416" type="pin data_out(7:0)" />
        <rect width="64" x="528" y="-428" height="24" />
        <line x2="592" y1="-416" y2="-416" x1="528" />
        <attrtext style="alignment:RIGHT;fontsize:24;fontname:Arial" attrname="PinName" x="520" y="-352" type="pin debugTag(7:0)" />
        <rect width="64" x="528" y="-364" height="24" />
        <line x2="592" y1="-352" y2="-352" x1="528" />
        <attrtext style="alignment:RIGHT;fontsize:24;fontname:Arial" attrname="PinName" x="520" y="-288" type="pin debugCacheBlockNumber(2:0)" />
        <rect width="64" x="528" y="-300" height="24" />
        <line x2="592" y1="-288" y2="-288" x1="528" />
        <attrtext style="alignment:RIGHT;fontsize:24;fontname:Arial" attrname="PinName" x="520" y="-224" type="pin debugOffset(4:0)" />
        <rect width="64" x="528" y="-236" height="24" />
        <line x2="592" y1="-224" y2="-224" x1="528" />
        <attrtext style="alignment:RIGHT;fontsize:24;fontname:Arial" attrname="PinName" x="520" y="-160" type="pin debugSdram_data_in(7:0)" />
        <rect width="64" x="528" y="-172" height="24" />
        <line x2="592" y1="-160" y2="-160" x1="528" />
        <attrtext style="alignment:RIGHT;fontsize:24;fontname:Arial" attrname="PinName" x="520" y="-96" type="pin debugSdram_data_out(7:0)" />
        <rect width="64" x="528" y="-108" height="24" />
        <line x2="592" y1="-96" y2="-96" x1="528" />
        <attrtext style="alignment:RIGHT;fontsize:24;fontname:Arial" attrname="PinName" x="520" y="-32" type="pin debugCache_data_in(7:0)" />
        <rect width="64" x="528" y="-44" height="24" />
        <line x2="592" y1="-32" y2="-32" x1="528" />
    </graph>
</symbol>
