<?xml version="1.0" encoding="UTF-8"?>
<symbol version="7" name="SDRAM_Controller">
    <symboltype>BLOCK</symboltype>
    <timestamp>2019-10-24T21:39:31</timestamp>
    <pin polarity="Input" x="0" y="-288" name="clk" />
    <pin polarity="Input" x="0" y="-224" name="wr_rd" />
    <pin polarity="Input" x="0" y="-160" name="mem_strb" />
    <pin polarity="Input" x="0" y="-96" name="address(15:0)" />
    <pin polarity="Input" x="0" y="-32" name="data_in(7:0)" />
    <pin polarity="Output" x="432" y="-288" name="data_out(7:0)" />
    <graph>
        <rect width="304" x="64" y="-320" height="320" />
        <attrtext style="alignment:BCENTER;fontsize:56;fontname:Arial" attrname="SymbolName" x="216" y="-328" type="symbol" />
        <attrtext style="fontsize:24;fontname:Arial" attrname="PinName" x="72" y="-288" type="pin clk" />
        <line x2="0" y1="-288" y2="-288" x1="64" />
        <attrtext style="fontsize:24;fontname:Arial" attrname="PinName" x="72" y="-224" type="pin wr_rd" />
        <line x2="0" y1="-224" y2="-224" x1="64" />
        <attrtext style="fontsize:24;fontname:Arial" attrname="PinName" x="72" y="-160" type="pin mem_strb" />
        <line x2="0" y1="-160" y2="-160" x1="64" />
        <attrtext style="fontsize:24;fontname:Arial" attrname="PinName" x="72" y="-96" type="pin address(15:0)" />
        <rect width="64" x="0" y="-108" height="24" />
        <line x2="0" y1="-96" y2="-96" x1="64" />
        <attrtext style="fontsize:24;fontname:Arial" attrname="PinName" x="72" y="-32" type="pin data_in(7:0)" />
        <rect width="64" x="0" y="-44" height="24" />
        <line x2="0" y1="-32" y2="-32" x1="64" />
        <attrtext style="alignment:RIGHT;fontsize:24;fontname:Arial" attrname="PinName" x="360" y="-288" type="pin data_out(7:0)" />
        <rect width="64" x="368" y="-300" height="24" />
        <line x2="432" y1="-288" y2="-288" x1="368" />
    </graph>
</symbol>
